{
    "cart": [{
            "url": "https://www.amazon.com/gp/product/B00BKQT6F8/ref=ox_sc_act_image_1?ie=UTF8&psc=1&smid=A3UH27URU5GI5Q",
            "image": "https://images-na.ssl-images-amazon.com/images/I/41UJuETOtuL._SS100_.jpg",
            "name": "Daniel Wellington Stainless Steel Watch with Brown Strap",
            "seller": "Daniel Wellington",
            "isAvailable": true,
            "isEligible": true,
            "price": 54.4
        },
        {
            "url": "https://www.amazon.com/gp/product/B00JP6FP6E/ref=ox_sc_act_title_1?ie=UTF8&psc=1&smid=A2VT4H683M5NNA",
            "image": "https://images-na.ssl-images-amazon.com/images/I/51t0LVOv0QL._SS100_.jpg",
            "name": "Apple Watch Band Milanese Loop",
            "seller": "MoKo",
            "isAvailable": true,
            "isEligible": false,
            "price": 65.4
        }
    ],
    "saved": [{
        "url": "https://www.amazon.com/gp/product/B0142CCDT2/ref=ox_sc_act_image_1?ie=UTF8&psc=1&smid=A2VT4H683M5NNA",
        "image": "https://images-na.ssl-images-amazon.com/images/I/31yjqkf3PAL._SS100_.jpg",
        "name": "Apple Watch Band Soft Silicone Replacement Sport Band for 38mm Apple Watch",
        "seller": "MoKo",
        "isAvailable": true,
        "isEligible": true,
        "price": 74.4
    }]
}